\relax 
\catcode `:\active 
\catcode `;\active 
\catcode `!\active 
\catcode `?\active 
\babel@aux{french}{}
\@writefile{toc}{\contentsline {section}{Introduction}{2}}
\@writefile{toc}{\contentsline {section}{\numberline {1}La ville de Munich}{3}}
\@writefile{toc}{\contentsline {subsection}{\numberline {1.1}La place de Munich dans le paysage allemand}{3}}
\@writefile{lof}{\contentsline {figure}{\numberline {1}{\ignorespaces Blason de la ville de Munich\relax }}{3}}
\@writefile{lof}{\contentsline {figure}{\numberline {2}{\ignorespaces Le Rathaus de Munich situ\IeC {\'e} \IeC {\`a} Marienplatz\relax }}{3}}
\@writefile{toc}{\contentsline {subsection}{\numberline {1.2}Les lieux et les activit\IeC {\'e}s principales de Munich}{3}}
\@writefile{lof}{\contentsline {figure}{\numberline {3}{\ignorespaces Entr\IeC {\'e}e de la f\IeC {\^e}te foraine \IeC {\`a} Therensenwiese\relax }}{4}}
\@writefile{lof}{\contentsline {figure}{\numberline {4}{\ignorespaces La f\IeC {\^e}te foraine de Therensenwiese\relax }}{4}}
\@writefile{lof}{\contentsline {figure}{\numberline {5}{\ignorespaces Un Biergarten\relax }}{5}}
\@writefile{lof}{\contentsline {figure}{\numberline {6}{\ignorespaces Stand de Pain d'\IeC {\'e}pices lors de l'Oktoberfest\relax }}{5}}
\@writefile{toc}{\contentsline {section}{\numberline {2}L'universit\IeC {\'e} Technique de Munich}{5}}
\@writefile{lof}{\contentsline {figure}{\numberline {7}{\ignorespaces Logo officiel de l'Universit\IeC {\'e} Technique de Munich\relax }}{5}}
\@writefile{lof}{\contentsline {figure}{\numberline {8}{\ignorespaces Logo du d\IeC {\'e}partement de Math\IeC {\'e}matiques \relax }}{5}}
\@writefile{lof}{\contentsline {figure}{\numberline {9}{\ignorespaces Le toboggan de la TUM vu du deuxi\IeC {\`e}me \IeC {\'e}tage\relax }}{6}}
\@writefile{lof}{\contentsline {figure}{\numberline {10}{\ignorespaces Le campus de Garching de la TUM\relax }}{6}}
\@writefile{toc}{\contentsline {section}{\numberline {3}Etre un \IeC {\'e}tudiant international \IeC {\`a} la TUM}{6}}
\@writefile{toc}{\contentsline {subsection}{\numberline {3.1}Les enseignements}{6}}
\@writefile{toc}{\contentsline {subsection}{\numberline {3.2}La vie sur le campus en tant qu'\IeC {\'e}tudiant Erasmus}{7}}
\@writefile{toc}{\contentsline {section}{Conclusion}{8}}
